[
    {
        "id": 1,
        "time_list": "00:30:10",
        "score": 90,
        "user_game_id": 1
    },
    {
        "id": 2,
        "time_list": "00:20:10",
        "score": 70,
        "user_game_id": 2
    }
]